Code for powerball dataset
…
inflation_adj <- inflation_adjust(2019)

inflation_adj <- inflation_adj%>%
  select(-avg_cpi, -base_year, -pct_increase)

inflation_adj

# A tibble: 73 x 2
   year  adj_value
   <chr>     <dbl>
 1 1947       0.09
 2 1948       0.09
 3 1949       0.09
 4 1950       0.09
 5 1951       0.1 
 6 1952       0.1 
 7 1953       0.11
 8 1954       0.11
 9 1955       0.11
10 1956       0.11
#  with 63 more rows
…
